{
    "input_files": [
        {
            "name": "model",
            "value": "unique_file_id_1",
            "required": true,
            "allow_multiple": false
        },
        {
            "name": "sample_data",
            "value": "unique_file_id_2",
            "required": true,
            "allow_multiple": true
        },
        {
            "name": "sample_masks",
            "value": "unique_file_id_3",
            "required": true,
            "allow_multiple": true
        },
        {
            "name": "sample_data",
            "value": "unique_file_id_4",
            "required": true,
            "allow_multiple": true
        },
        {
            "name": "sample_masks",
            "value": "unique_file_id_5",
            "required": true,
            "allow_multiple": true
        }
    ],
    "arguments": [
        {
            "name": "execution",
            "value": "tests/validate/run_Laia"
        },
        {
            "name": "project",
            "value": "example"
        },
        {
            "name": "description",
            "value": "test"
        }
    ],
    "output_files": [
        {
            "name": "prediction_results",
            "required": true,
            "allow_multiple": false,
            "file": {
                "file_type": "CSV",
                "file_path": "predictions.csv",
                "data_type": "result",
                "meta_data": {
                    "visible": true,
                    "description": "Result of tool application example"
                }
            }
        }
    ]
}
